,0,1
0,100.0,0.219515101
1,149.49494949494948,0.232853085
2,198.989898989899,0.247461253
3,248.4848484848485,0.260474326
4,297.979797979798,0.276807457
5,347.47474747474746,0.295855538
6,396.969696969697,0.313085152
7,446.4646464646465,0.333209657
8,495.95959595959596,0.351784825
9,545.4545454545455,0.373328784
10,594.9494949494949,0.395599733
11,644.4444444444445,0.416499912
12,693.939393939394,0.440156428
13,743.4343434343434,0.465004258
14,792.929292929293,0.487432612
15,842.4242424242424,0.512231194
16,891.9191919191919,0.538108359
17,941.4141414141415,0.564449143
18,990.9090909090909,0.589686678
19,1040.4040404040404,0.616391496
20,1089.8989898989898,0.642912257
21,1139.3939393939395,0.667827724
22,1188.888888888889,0.695777789
23,1238.3838383838383,0.725761838
24,1287.878787878788,0.75419673
25,1337.3737373737374,0.782903903
26,1386.8686868686868,0.810009847
27,1436.3636363636363,0.837527564
28,1485.858585858586,0.865610608
29,1535.3535353535353,0.894265717
30,1584.8484848484848,0.920901865
31,1634.3434343434344,0.951204388
32,1683.8383838383838,0.981032416
33,1733.3333333333333,1.00642957
34,1782.828282828283,1.03313875
35,1832.3232323232323,1.05835995
36,1881.8181818181818,1.08602476
37,1931.3131313131314,1.11114198
38,1980.8080808080808,1.13409115
39,2030.3030303030303,1.16126125
40,2079.7979797979797,1.18533552
41,2129.2929292929293,1.2088293
42,2178.787878787879,1.23036397
43,2228.282828282828,1.25247181
44,2277.777777777778,1.27268875
45,2327.2727272727275,1.28763906
46,2376.7676767676767,1.31259665
47,2426.2626262626263,1.32937995
48,2475.757575757576,1.35151959
49,2525.252525252525,1.36556636
50,2574.747474747475,1.38296849
51,2624.242424242424,1.39951394
52,2673.7373737373737,1.41172751
53,2723.2323232323233,1.42566821
54,2772.7272727272725,1.43707316
55,2822.222222222222,1.44594486
56,2871.717171717172,1.45595411
57,2921.212121212121,1.46519238
58,2970.7070707070707,1.46376031
59,3020.2020202020203,1.47554458
60,3069.6969696969695,1.48120388
61,3119.191919191919,1.48660416
62,3168.686868686869,1.48681753
63,3218.181818181818,1.48738573
64,3267.6767676767677,1.48794233
65,3317.1717171717173,1.48222268
66,3366.6666666666665,1.48247603
67,3416.161616161616,1.47886243
68,3465.656565656566,1.47335124
69,3515.151515151515,1.47001243
70,3564.6464646464647,1.46005599
71,3614.1414141414143,1.45283679
72,3663.6363636363635,1.44143922
73,3713.131313131313,1.43143408
74,3762.626262626263,1.41995034
75,3812.121212121212,1.40711263
76,3861.6161616161617,1.39321626
77,3911.1111111111113,1.37933142
78,3960.6060606060605,1.36266341
79,4010.10101010101,1.34507973
80,4059.59595959596,1.32687524
81,4109.090909090909,1.31140792
82,4158.585858585859,1.28802544
83,4208.080808080808,1.2676766
84,4257.575757575758,1.24567989
85,4307.070707070707,1.22370612
86,4356.565656565656,1.20159172
87,4406.060606060606,1.17721885
88,4455.555555555556,1.15160855
89,4505.050505050505,1.12721394
90,4554.545454545455,1.10117079
91,4604.040404040404,1.07547957
92,4653.535353535353,1.04887559
93,4703.030303030303,1.02167928
94,4752.525252525253,0.994108042
95,4802.020202020202,0.96638741
96,4851.515151515152,0.938110005
97,4901.010101010101,0.909717232
98,4950.50505050505,0.881679187
99,5000.0,0.853901535
