,0,1
0,100.0,0.21926744
1,149.49494949494948,0.234491687
2,198.989898989899,0.247869985
3,248.4848484848485,0.262004609
4,297.979797979798,0.278600603
5,347.47474747474746,0.296013693
6,396.969696969697,0.3140305
7,446.4646464646465,0.33364658
8,495.95959595959596,0.354308348
9,545.4545454545455,0.375428644
10,594.9494949494949,0.395459194
11,644.4444444444445,0.421110546
12,693.939393939394,0.442216664
13,743.4343434343434,0.46584945
14,792.929292929293,0.490970829
15,842.4242424242424,0.514041822
16,891.9191919191919,0.54083916
17,941.4141414141415,0.566447527
18,990.9090909090909,0.593058091
19,1040.4040404040404,0.619643497
20,1089.8989898989898,0.647752232
21,1139.3939393939395,0.674990095
22,1188.888888888889,0.703957666
23,1238.3838383838383,0.731241773
24,1287.878787878788,0.758701024
25,1337.3737373737374,0.787958705
26,1386.8686868686868,0.817197521
27,1436.3636363636363,0.844873956
28,1485.858585858586,0.872469378
29,1535.3535353535353,0.902779536
30,1584.8484848484848,0.929814078
31,1634.3434343434344,0.958463226
32,1683.8383838383838,0.986933312
33,1733.3333333333333,1.01192622
34,1782.828282828283,1.04073693
35,1832.3232323232323,1.0651155
36,1881.8181818181818,1.0929987
37,1931.3131313131314,1.11817745
38,1980.8080808080808,1.14207743
39,2030.3030303030303,1.16808846
40,2079.7979797979797,1.18916846
41,2129.2929292929293,1.21333835
42,2178.787878787879,1.23799133
43,2228.282828282828,1.25821669
44,2277.777777777778,1.28295815
45,2327.2727272727275,1.3018216
46,2376.7676767676767,1.32164338
47,2426.2626262626263,1.34147588
48,2475.757575757576,1.35744602
49,2525.252525252525,1.37450929
50,2574.747474747475,1.38890713
51,2624.242424242424,1.40259793
52,2673.7373737373737,1.41690204
53,2723.2323232323233,1.42870473
54,2772.7272727272725,1.44070135
55,2822.222222222222,1.45197674
56,2871.717171717172,1.46216649
57,2921.212121212121,1.4686402
58,2970.7070707070707,1.47522131
59,3020.2020202020203,1.48164704
60,3069.6969696969695,1.48650691
61,3119.191919191919,1.48980345
62,3168.686868686869,1.49251888
63,3218.181818181818,1.49334187
64,3267.6767676767677,1.49186054
65,3317.1717171717173,1.4915251
66,3366.6666666666665,1.48840981
67,3416.161616161616,1.48360044
68,3465.656565656566,1.47861587
69,3515.151515151515,1.47354466
70,3564.6464646464647,1.46488388
71,3614.1414141414143,1.45588317
72,3663.6363636363635,1.44590344
73,3713.131313131313,1.43385388
74,3762.626262626263,1.42251957
75,3812.121212121212,1.40872174
76,3861.6161616161617,1.39596759
77,3911.1111111111113,1.38070653
78,3960.6060606060605,1.36388248
79,4010.10101010101,1.34768531
80,4059.59595959596,1.32913151
81,4109.090909090909,1.31064753
82,4158.585858585859,1.29061106
83,4208.080808080808,1.26906824
84,4257.575757575758,1.24743544
85,4307.070707070707,1.22482705
86,4356.565656565656,1.20290592
87,4406.060606060606,1.17723349
88,4455.555555555556,1.15191892
89,4505.050505050505,1.12730598
90,4554.545454545455,1.10025939
91,4604.040404040404,1.07387785
92,4653.535353535353,1.04720394
93,4703.030303030303,1.01953476
94,4752.525252525253,0.991571969
95,4802.020202020202,0.963616237
96,4851.515151515152,0.935461779
97,4901.010101010101,0.906812292
98,4950.50505050505,0.877875053
99,5000.0,0.850106238
