,0,1
0,100.0,0.221317799
1,149.49494949494948,0.236880048
2,198.989898989899,0.251238676
3,248.4848484848485,0.266038737
4,297.979797979798,0.282415172
5,347.47474747474746,0.300027295
6,396.969696969697,0.31788984
7,446.4646464646465,0.337352467
8,495.95959595959596,0.358323619
9,545.4545454545455,0.378448184
10,594.9494949494949,0.400933472
11,644.4444444444445,0.420141159
12,693.939393939394,0.445603819
13,743.4343434343434,0.46861023
14,792.929292929293,0.49497189
15,842.4242424242424,0.517763754
16,891.9191919191919,0.545348519
17,941.4141414141415,0.57000433
18,990.9090909090909,0.597190807
19,1040.4040404040404,0.624582976
20,1089.8989898989898,0.652481884
21,1139.3939393939395,0.678247519
22,1188.888888888889,0.706668962
23,1238.3838383838383,0.736232417
24,1287.878787878788,0.762327678
25,1337.3737373737374,0.791867869
26,1386.8686868686868,0.820093272
27,1436.3636363636363,0.847822927
28,1485.858585858586,0.876310861
29,1535.3535353535353,0.904221046
30,1584.8484848484848,0.932352358
31,1634.3434343434344,0.959270477
32,1683.8383838383838,0.986899323
33,1733.3333333333333,1.01266769
34,1782.828282828283,1.04107334
35,1832.3232323232323,1.06740019
36,1881.8181818181818,1.09220246
37,1931.3131313131314,1.12146853
38,1980.8080808080808,1.14043023
39,2030.3030303030303,1.16590695
40,2079.7979797979797,1.18962717
41,2129.2929292929293,1.21585504
42,2178.787878787879,1.2368854
43,2228.282828282828,1.25998543
44,2277.777777777778,1.28144604
45,2327.2727272727275,1.29913606
46,2376.7676767676767,1.31736311
47,2426.2626262626263,1.33680788
48,2475.757575757576,1.35444174
49,2525.252525252525,1.37029226
50,2574.747474747475,1.38498324
51,2624.242424242424,1.39963237
52,2673.7373737373737,1.41401649
53,2723.2323232323233,1.42638158
54,2772.7272727272725,1.43924661
55,2822.222222222222,1.44927593
56,2871.717171717172,1.4555124
57,2921.212121212121,1.46321933
58,2970.7070707070707,1.47201699
59,3020.2020202020203,1.47542659
60,3069.6969696969695,1.47946772
61,3119.191919191919,1.48497006
62,3168.686868686869,1.48488285
63,3218.181818181818,1.48472405
64,3267.6767676767677,1.48605374
65,3317.1717171717173,1.4846766
66,3366.6666666666665,1.48004155
67,3416.161616161616,1.47677963
68,3465.656565656566,1.47247179
69,3515.151515151515,1.46552126
70,3564.6464646464647,1.45630563
71,3614.1414141414143,1.44846304
72,3663.6363636363635,1.43982381
73,3713.131313131313,1.43252007
74,3762.626262626263,1.41561503
75,3812.121212121212,1.40146394
76,3861.6161616161617,1.38570607
77,3911.1111111111113,1.37095225
78,3960.6060606060605,1.3547861
79,4010.10101010101,1.33644773
80,4059.59595959596,1.31727177
81,4109.090909090909,1.29789526
82,4158.585858585859,1.27876305
83,4208.080808080808,1.25619094
84,4257.575757575758,1.2356654
85,4307.070707070707,1.21184535
86,4356.565656565656,1.18808143
87,4406.060606060606,1.16468841
88,4455.555555555556,1.13962088
89,4505.050505050505,1.11326775
90,4554.545454545455,1.08979974
91,4604.040404040404,1.06316224
92,4653.535353535353,1.03608253
93,4703.030303030303,1.00751786
94,4752.525252525253,0.979981544
95,4802.020202020202,0.953252504
96,4851.515151515152,0.923748401
97,4901.010101010101,0.895597873
98,4950.50505050505,0.866553415
99,5000.0,0.837923817
