,0,1
0,100.0,1.51033945
1,149.49494949494948,1.51804769
2,198.989898989899,1.52431747
3,248.4848484848485,1.53528363
4,297.979797979798,1.54353413
5,347.47474747474746,1.55007487
6,396.969696969697,1.55381435
7,446.4646464646465,1.55431291
8,495.95959595959596,1.56042912
9,545.4545454545455,1.5614645
10,594.9494949494949,1.56660351
11,644.4444444444445,1.56586639
12,693.939393939394,1.56778879
13,743.4343434343434,1.56988326
14,792.929292929293,1.5670108
15,842.4242424242424,1.56890612
16,891.9191919191919,1.56609184
17,941.4141414141415,1.5651234
18,990.9090909090909,1.56597809
19,1040.4040404040404,1.55526258
20,1089.8989898989898,1.55043535
21,1139.3939393939395,1.5449245
22,1188.888888888889,1.54235563
23,1238.3838383838383,1.53423079
24,1287.878787878788,1.52485192
25,1337.3737373737374,1.51484701
26,1386.8686868686868,1.50799289
27,1436.3636363636363,1.49658022
28,1485.858585858586,1.4872896
29,1535.3535353535353,1.47577762
30,1584.8484848484848,1.4651524
31,1634.3434343434344,1.45114609
32,1683.8383838383838,1.43836763
33,1733.3333333333333,1.42477646
34,1782.828282828283,1.40861236
35,1832.3232323232323,1.39673679
36,1881.8181818181818,1.38097233
37,1931.3131313131314,1.36261175
38,1980.8080808080808,1.34629216
39,2030.3030303030303,1.32948456
40,2079.7979797979797,1.31298619
41,2129.2929292929293,1.2964922
42,2178.787878787879,1.27772978
43,2228.282828282828,1.26056244
44,2277.777777777778,1.24352071
45,2327.2727272727275,1.22371149
46,2376.7676767676767,1.20648911
47,2426.2626262626263,1.18754552
48,2475.757575757576,1.16891702
49,2525.252525252525,1.15001452
50,2574.747474747475,1.13112239
51,2624.242424242424,1.11263379
52,2673.7373737373737,1.09174609
53,2723.2323232323233,1.07410449
54,2772.7272727272725,1.05344802
55,2822.222222222222,1.03485674
56,2871.717171717172,1.01645761
57,2921.212121212121,0.998501445
58,2970.7070707070707,0.979489286
59,3020.2020202020203,0.961749286
60,3069.6969696969695,0.944676607
61,3119.191919191919,0.92740705
62,3168.686868686869,0.909389799
63,3218.181818181818,0.892520348
64,3267.6767676767677,0.876825867
65,3317.1717171717173,0.862850168
66,3366.6666666666665,0.846043664
67,3416.161616161616,0.831587923
68,3465.656565656566,0.816598533
69,3515.151515151515,0.803669617
70,3564.6464646464647,0.79036654
71,3614.1414141414143,0.777419456
72,3663.6363636363635,0.766552458
73,3713.131313131313,0.753969585
74,3762.626262626263,0.741414319
75,3812.121212121212,0.73341661
76,3861.6161616161617,0.724672138
77,3911.1111111111113,0.715664958
78,3960.6060606060605,0.707854769
79,4010.10101010101,0.701303417
80,4059.59595959596,0.694806688
81,4109.090909090909,0.689440948
82,4158.585858585859,0.68506344
83,4208.080808080808,0.680741465
84,4257.575757575758,0.677787401
85,4307.070707070707,0.675380545
86,4356.565656565656,0.674347968
87,4406.060606060606,0.674010416
88,4455.555555555556,0.673640632
89,4505.050505050505,0.674622671
90,4554.545454545455,0.676594183
91,4604.040404040404,0.678643217
92,4653.535353535353,0.682337853
93,4703.030303030303,0.686124588
94,4752.525252525253,0.691271
95,4802.020202020202,0.697185161
96,4851.515151515152,0.703532212
97,4901.010101010101,0.710789985
98,4950.50505050505,0.718647465
99,5000.0,0.727540995
