,0,1
0,100.0,0.835775452
1,149.49494949494948,0.817849751
2,198.989898989899,0.800481891
3,248.4848484848485,0.783624117
4,297.979797979798,0.76647726
5,347.47474747474746,0.748997333
6,396.969696969697,0.736024623
7,446.4646464646465,0.721678756
8,495.95959595959596,0.706466849
9,545.4545454545455,0.689160002
10,594.9494949494949,0.676998378
11,644.4444444444445,0.663968797
12,693.939393939394,0.651232959
13,743.4343434343434,0.641340907
14,792.929292929293,0.626963284
15,842.4242424242424,0.620016872
16,891.9191919191919,0.609806197
17,941.4141414141415,0.601957717
18,990.9090909090909,0.592409677
19,1040.4040404040404,0.584612266
20,1089.8989898989898,0.579504556
21,1139.3939393939395,0.573373651
22,1188.888888888889,0.568021859
23,1238.3838383838383,0.56377756
24,1287.878787878788,0.559590048
25,1337.3737373737374,0.555799638
26,1386.8686868686868,0.553818012
27,1436.3636363636363,0.552166342
28,1485.858585858586,0.550687392
29,1535.3535353535353,0.550302664
30,1584.8484848484848,0.550907579
31,1634.3434343434344,0.551587048
32,1683.8383838383838,0.552656802
33,1733.3333333333333,0.555799803
34,1782.828282828283,0.558837825
35,1832.3232323232323,0.562121515
36,1881.8181818181818,0.566720123
37,1931.3131313131314,0.572093584
38,1980.8080808080808,0.576933643
39,2030.3030303030303,0.583583175
40,2079.7979797979797,0.590515995
41,2129.2929292929293,0.597881203
42,2178.787878787879,0.607324376
43,2228.282828282828,0.615306566
44,2277.777777777778,0.624316771
45,2327.2727272727275,0.633489943
46,2376.7676767676767,0.644265399
47,2426.2626262626263,0.655011042
48,2475.757575757576,0.66731273
49,2525.252525252525,0.678395585
50,2574.747474747475,0.690718726
51,2624.242424242424,0.703276996
52,2673.7373737373737,0.717185435
53,2723.2323232323233,0.729981753
54,2772.7272727272725,0.742961698
55,2822.222222222222,0.75929084
56,2871.717171717172,0.773074014
57,2921.212121212121,0.787772713
58,2970.7070707070707,0.802479299
59,3020.2020202020203,0.816803145
60,3069.6969696969695,0.832667454
61,3119.191919191919,0.848392488
62,3168.686868686869,0.86358306
63,3218.181818181818,0.879486646
64,3267.6767676767677,0.895498435
65,3317.1717171717173,0.909954641
66,3366.6666666666665,0.926405923
67,3416.161616161616,0.942603299
68,3465.656565656566,0.957965671
69,3515.151515151515,0.973766763
70,3564.6464646464647,0.988059434
71,3614.1414141414143,1.00431855
72,3663.6363636363635,1.01855534
73,3713.131313131313,1.03430185
74,3762.626262626263,1.0498617
75,3812.121212121212,1.06422897
76,3861.6161616161617,1.0755217
77,3911.1111111111113,1.09321162
78,3960.6060606060605,1.10683464
79,4010.10101010101,1.12045079
80,4059.59595959596,1.13407929
81,4109.090909090909,1.14794556
82,4158.585858585859,1.15991403
83,4208.080808080808,1.17008727
84,4257.575757575758,1.18210743
85,4307.070707070707,1.19291348
86,4356.565656565656,1.20454491
87,4406.060606060606,1.21241352
88,4455.555555555556,1.22082685
89,4505.050505050505,1.23276021
90,4554.545454545455,1.24709221
91,4604.040404040404,1.252103
92,4653.535353535353,1.25634225
93,4703.030303030303,1.26052162
94,4752.525252525253,1.26321083
95,4802.020202020202,1.27622617
96,4851.515151515152,1.27778596
97,4901.010101010101,1.28275641
98,4950.50505050505,1.28478445
99,5000.0,1.28613638
