,0,1
0,100.0,1.23899474
1,149.49494949494948,1.2320644
2,198.989898989899,1.22089666
3,248.4848484848485,1.21066941
4,297.979797979798,1.19529054
5,347.47474747474746,1.18249716
6,396.969696969697,1.17473417
7,446.4646464646465,1.16438456
8,495.95959595959596,1.15143128
9,545.4545454545455,1.13925153
10,594.9494949494949,1.12871836
11,644.4444444444445,1.12124488
12,693.939393939394,1.10331491
13,743.4343434343434,1.09440391
14,792.929292929293,1.08292479
15,842.4242424242424,1.06971544
16,891.9191919191919,1.05997885
17,941.4141414141415,1.047492
18,990.9090909090909,1.03874587
19,1040.4040404040404,1.02789102
20,1089.8989898989898,1.0123089
21,1139.3939393939395,1.00271003
22,1188.888888888889,0.991794721
23,1238.3838383838383,0.987643818
24,1287.878787878788,0.99318885
25,1337.3737373737374,0.975312004
26,1386.8686868686868,0.961341815
27,1436.3636363636363,0.954928493
28,1485.858585858586,0.947300711
29,1535.3535353535353,0.945754225
30,1584.8484848484848,0.939486236
31,1634.3434343434344,0.934285865
32,1683.8383838383838,0.92929123
33,1733.3333333333333,0.923975132
34,1782.828282828283,0.920200218
35,1832.3232323232323,0.909802245
36,1881.8181818181818,0.907311896
37,1931.3131313131314,0.902783143
38,1980.8080808080808,0.897954607
39,2030.3030303030303,0.896450805
40,2079.7979797979797,0.89360329
41,2129.2929292929293,0.893727413
42,2178.787878787879,0.893001347
43,2228.282828282828,0.891216099
44,2277.777777777778,0.892740913
45,2327.2727272727275,0.893192521
46,2376.7676767676767,0.893794451
47,2426.2626262626263,0.894570004
48,2475.757575757576,0.895751707
49,2525.252525252525,0.901871105
50,2574.747474747475,0.903511413
51,2624.242424242424,0.907000041
52,2673.7373737373737,0.910316513
53,2723.2323232323233,0.915751498
54,2772.7272727272725,0.920958967
55,2822.222222222222,0.925282949
56,2871.717171717172,0.931752416
57,2921.212121212121,0.936748213
58,2970.7070707070707,0.943963433
59,3020.2020202020203,0.951534932
60,3069.6969696969695,0.957923586
61,3119.191919191919,0.964330374
62,3168.686868686869,0.974300416
63,3218.181818181818,0.983001915
64,3267.6767676767677,0.992542195
65,3317.1717171717173,0.99962056
66,3366.6666666666665,1.00758654
67,3416.161616161616,1.01741541
68,3465.656565656566,1.02634999
69,3515.151515151515,1.03685599
70,3564.6464646464647,1.04767973
71,3614.1414141414143,1.0580673
72,3663.6363636363635,1.06868226
73,3713.131313131313,1.07832639
74,3762.626262626263,1.08865546
75,3812.121212121212,1.10138383
76,3861.6161616161617,1.1146015
77,3911.1111111111113,1.12776585
78,3960.6060606060605,1.1391465
79,4010.10101010101,1.14776496
80,4059.59595959596,1.15715148
81,4109.090909090909,1.1712195
82,4158.585858585859,1.17914805
83,4208.080808080808,1.19046637
84,4257.575757575758,1.19652166
85,4307.070707070707,1.21226275
86,4356.565656565656,1.22749695
87,4406.060606060606,1.23508092
88,4455.555555555556,1.24626459
89,4505.050505050505,1.25627379
90,4554.545454545455,1.26860161
91,4604.040404040404,1.27306552
92,4653.535353535353,1.2937154
93,4703.030303030303,1.29932499
94,4752.525252525253,1.31085315
95,4802.020202020202,1.31919227
96,4851.515151515152,1.32899531
97,4901.010101010101,1.33860429
98,4950.50505050505,1.34439557
99,5000.0,1.35715856
