,0,1
0,100.0,0.0910886304
1,149.49494949494948,0.0931636173
2,198.989898989899,0.0963776005
3,248.4848484848485,0.100944337
4,297.979797979798,0.106900784
5,347.47474747474746,0.114179059
6,396.969696969697,0.122991361
7,446.4646464646465,0.132925613
8,495.95959595959596,0.144176821
9,545.4545454545455,0.156403876
10,594.9494949494949,0.170135788
11,644.4444444444445,0.184811497
12,693.939393939394,0.201397911
13,743.4343434343434,0.218481299
14,792.929292929293,0.237193332
15,842.4242424242424,0.256305455
16,891.9191919191919,0.276872783
17,941.4141414141415,0.297926502
18,990.9090909090909,0.320641316
19,1040.4040404040404,0.34340273
20,1089.8989898989898,0.368103354
21,1139.3939393939395,0.392885256
22,1188.888888888889,0.418868595
23,1238.3838383838383,0.444899538
24,1287.878787878788,0.472777162
25,1337.3737373737374,0.49987857
26,1386.8686868686868,0.52868616
27,1436.3636363636363,0.557720609
28,1485.858585858586,0.587689312
29,1535.3535353535353,0.616314919
30,1584.8484848484848,0.646458239
31,1634.3434343434344,0.676869641
32,1683.8383838383838,0.707744395
33,1733.3333333333333,0.737976088
34,1782.828282828283,0.769940287
35,1832.3232323232323,0.800697087
36,1881.8181818181818,0.832115676
37,1931.3131313131314,0.862970416
38,1980.8080808080808,0.894014988
39,2030.3030303030303,0.923684659
40,2079.7979797979797,0.955357305
41,2129.2929292929293,0.985143175
42,2178.787878787879,1.01559197
43,2228.282828282828,1.04436791
44,2277.777777777778,1.07386984
45,2327.2727272727275,1.10130079
46,2376.7676767676767,1.13062819
47,2426.2626262626263,1.1567845
48,2475.757575757576,1.18474112
49,2525.252525252525,1.20979674
50,2574.747474747475,1.23677426
51,2624.242424242424,1.26023025
52,2673.7373737373737,1.28341991
53,2723.2323232323233,1.30779278
54,2772.7272727272725,1.32948923
55,2822.222222222222,1.35149683
56,2871.717171717172,1.37131305
57,2921.212121212121,1.38943626
58,2970.7070707070707,1.40784287
59,3020.2020202020203,1.42359903
60,3069.6969696969695,1.44751834
61,3119.191919191919,1.45537849
62,3168.686868686869,1.46763632
63,3218.181818181818,1.47901988
64,3267.6767676767677,1.49061907
65,3317.1717171717173,1.49918604
66,3366.6666666666665,1.50160711
67,3416.161616161616,1.51339016
68,3465.656565656566,1.51814801
69,3515.151515151515,1.52310612
70,3564.6464646464647,1.52838855
71,3614.1414141414143,1.53247612
72,3663.6363636363635,1.52962677
73,3713.131313131313,1.53008299
74,3762.626262626263,1.52596061
75,3812.121212121212,1.52328962
76,3861.6161616161617,1.51859878
77,3911.1111111111113,1.515271
78,3960.6060606060605,1.5049193
79,4010.10101010101,1.49372362
80,4059.59595959596,1.48552081
81,4109.090909090909,1.47688583
82,4158.585858585859,1.46341732
83,4208.080808080808,1.44978539
84,4257.575757575758,1.43560857
85,4307.070707070707,1.42002575
86,4356.565656565656,1.40248373
87,4406.060606060606,1.38316847
88,4455.555555555556,1.36427107
89,4505.050505050505,1.34472143
90,4554.545454545455,1.32302811
91,4604.040404040404,1.30010566
92,4653.535353535353,1.27594113
93,4703.030303030303,1.2506815
94,4752.525252525253,1.22513408
95,4802.020202020202,1.20034538
96,4851.515151515152,1.1738617
97,4901.010101010101,1.14653718
98,4950.50505050505,1.1195555
99,5000.0,1.09102674
