,0,1
0,100.0,2.2573086
1,149.49494949494948,2.29048367
2,198.989898989899,2.31990475
3,248.4848484848485,2.34874367
4,297.979797979798,2.37676601
5,347.47474747474746,2.40294202
6,396.969696969697,2.4272349
7,446.4646464646465,2.45176056
8,495.95959595959596,2.47318943
9,545.4545454545455,2.4942218
10,594.9494949494949,2.51302413
11,644.4444444444445,2.5307818
12,693.939393939394,2.54801852
13,743.4343434343434,2.56203128
14,792.929292929293,2.57418478
15,842.4242424242424,2.58259899
16,891.9191919191919,2.59286914
17,941.4141414141415,2.59968476
18,990.9090909090909,2.59725003
19,1040.4040404040404,2.60646353
20,1089.8989898989898,2.60658517
21,1139.3939393939395,2.60696235
22,1188.888888888889,2.59926826
23,1238.3838383838383,2.59736859
24,1287.878787878788,2.58233958
25,1337.3737373737374,2.58316588
26,1386.8686868686868,2.5686534
27,1436.3636363636363,2.55957323
28,1485.858585858586,2.54469505
29,1535.3535353535353,2.52931121
30,1584.8484848484848,2.51779762
31,1634.3434343434344,2.49523544
32,1683.8383838383838,2.45897979
33,1733.3333333333333,2.45006551
34,1782.828282828283,2.4195953
35,1832.3232323232323,2.40054736
36,1881.8181818181818,2.37260257
37,1931.3131313131314,2.3440219
38,1980.8080808080808,2.3161908
39,2030.3030303030303,2.28452542
40,2079.7979797979797,2.25192144
41,2129.2929292929293,2.21817548
42,2178.787878787879,2.18225246
43,2228.282828282828,2.14065175
44,2277.777777777778,2.11035174
45,2327.2727272727275,2.07067449
46,2376.7676767676767,2.03174031
47,2426.2626262626263,1.99253731
48,2475.757575757576,1.95268176
49,2525.252525252525,1.91237838
50,2574.747474747475,1.86969831
51,2624.242424242424,1.82723494
52,2673.7373737373737,1.78421467
53,2723.2323232323233,1.7416758
54,2772.7272727272725,1.69893774
55,2822.222222222222,1.65505875
56,2871.717171717172,1.61016776
57,2921.212121212121,1.56659993
58,2970.7070707070707,1.52237579
59,3020.2020202020203,1.47822365
60,3069.6969696969695,1.43449371
61,3119.191919191919,1.39114245
62,3168.686868686869,1.34775031
63,3218.181818181818,1.3045762
64,3267.6767676767677,1.26294234
65,3317.1717171717173,1.22229108
66,3366.6666666666665,1.1796295
67,3416.161616161616,1.14053424
68,3465.656565656566,1.09632834
69,3515.151515151515,1.06293149
70,3564.6464646464647,1.02452757
71,3614.1414141414143,0.987823247
72,3663.6363636363635,0.951723347
73,3713.131313131313,0.919384319
74,3762.626262626263,0.885749091
75,3812.121212121212,0.853136615
76,3861.6161616161617,0.822492979
77,3911.1111111111113,0.794162384
78,3960.6060606060605,0.765703007
79,4010.10101010101,0.740448552
80,4059.59595959596,0.715288662
81,4109.090909090909,0.691607261
82,4158.585858585859,0.670503987
83,4208.080808080808,0.65077532
84,4257.575757575758,0.632589622
85,4307.070707070707,0.61737319
86,4356.565656565656,0.60218835
87,4406.060606060606,0.589696238
88,4455.555555555556,0.578438283
89,4505.050505050505,0.569591715
90,4554.545454545455,0.56190668
91,4604.040404040404,0.556870518
92,4653.535353535353,0.553775201
93,4703.030303030303,0.551634087
94,4752.525252525253,0.551918915
95,4802.020202020202,0.554117149
96,4851.515151515152,0.55839872
97,4901.010101010101,0.564478845
98,4950.50505050505,0.571690028
99,5000.0,0.581210939
