,0,1
0,100.0,2.04227418
1,149.49494949494948,2.08758043
2,198.989898989899,2.1168273
3,248.4848484848485,2.14533215
4,297.979797979798,2.18593022
5,347.47474747474746,2.21987957
6,396.969696969697,2.25471403
7,446.4646464646465,2.28572252
8,495.95959595959596,2.31621592
9,545.4545454545455,2.34502101
10,594.9494949494949,2.3743234
11,644.4444444444445,2.39781665
12,693.939393939394,2.42346987
13,743.4343434343434,2.44701843
14,792.929292929293,2.46787585
15,842.4242424242424,2.48655199
16,891.9191919191919,2.50491276
17,941.4141414141415,2.52002498
18,990.9090909090909,2.53249636
19,1040.4040404040404,2.54384137
20,1089.8989898989898,2.55486291
21,1139.3939393939395,2.56509802
22,1188.888888888889,2.57419978
23,1238.3838383838383,2.58100908
24,1287.878787878788,2.57822468
25,1337.3737373737374,2.56747232
26,1386.8686868686868,2.58020161
27,1436.3636363636363,2.58655141
28,1485.858585858586,2.57514367
29,1535.3535353535353,2.572374
30,1584.8484848484848,2.55961763
31,1634.3434343434344,2.54457603
32,1683.8383838383838,2.54051033
33,1733.3333333333333,2.52537124
34,1782.828282828283,2.50603856
35,1832.3232323232323,2.48714414
36,1881.8181818181818,2.46552528
37,1931.3131313131314,2.44430778
38,1980.8080808080808,2.42303889
39,2030.3030303030303,2.39615927
40,2079.7979797979797,2.36429097
41,2129.2929292929293,2.33778463
42,2178.787878787879,2.30911424
43,2228.282828282828,2.2780646
44,2277.777777777778,2.24512769
45,2327.2727272727275,2.21129166
46,2376.7676767676767,2.17448115
47,2426.2626262626263,2.13889966
48,2475.757575757576,2.10224037
49,2525.252525252525,2.06326861
50,2574.747474747475,2.02303973
51,2624.242424242424,1.98050788
52,2673.7373737373737,1.93916092
53,2723.2323232323233,1.89551417
54,2772.7272727272725,1.85358262
55,2822.222222222222,1.81032661
56,2871.717171717172,1.76519556
57,2921.212121212121,1.71677093
58,2970.7070707070707,1.67110717
59,3020.2020202020203,1.62305363
60,3069.6969696969695,1.57760889
61,3119.191919191919,1.53322132
62,3168.686868686869,1.48490839
63,3218.181818181818,1.43906943
64,3267.6767676767677,1.39386907
65,3317.1717171717173,1.34767746
66,3366.6666666666665,1.30213723
67,3416.161616161616,1.25642616
68,3465.656565656566,1.20840626
69,3515.151515151515,1.16732604
70,3564.6464646464647,1.12391452
71,3614.1414141414143,1.08096407
72,3663.6363636363635,1.03952367
73,3713.131313131313,0.9970122
74,3762.626262626263,0.956826318
75,3812.121212121212,0.918296411
76,3861.6161616161617,0.880479443
77,3911.1111111111113,0.843330209
78,3960.6060606060605,0.806207213
79,4010.10101010101,0.770452968
80,4059.59595959596,0.738382669
81,4109.090909090909,0.706292865
82,4158.585858585859,0.67273722
83,4208.080808080808,0.647435882
84,4257.575757575758,0.619617351
85,4307.070707070707,0.593779051
86,4356.565656565656,0.570357761
87,4406.060606060606,0.546490738
88,4455.555555555556,0.528054764
89,4505.050505050505,0.50839471
90,4554.545454545455,0.492376187
91,4604.040404040404,0.477913802
92,4653.535353535353,0.464865134
93,4703.030303030303,0.453386642
94,4752.525252525253,0.444922615
95,4802.020202020202,0.437171592
96,4851.515151515152,0.431896082
97,4901.010101010101,0.428335861
98,4950.50505050505,0.426765593
99,5000.0,0.428172378
