,0,1
0,100.0,1.60958192
1,149.49494949494948,1.6138987
2,198.989898989899,1.61982194
3,248.4848484848485,1.62817974
4,297.979797979798,1.62926145
5,347.47474747474746,1.63101065
6,396.969696969697,1.63015861
7,446.4646464646465,1.63419784
8,495.95959595959596,1.62967696
9,545.4545454545455,1.64112553
10,594.9494949494949,1.62688707
11,644.4444444444445,1.63162199
12,693.939393939394,1.62774502
13,743.4343434343434,1.62912162
14,792.929292929293,1.62067287
15,842.4242424242424,1.62199812
16,891.9191919191919,1.62602711
17,941.4141414141415,1.61540425
18,990.9090909090909,1.61129666
19,1040.4040404040404,1.6085944
20,1089.8989898989898,1.60339797
21,1139.3939393939395,1.59545703
22,1188.888888888889,1.58785065
23,1238.3838383838383,1.58411786
24,1287.878787878788,1.57765958
25,1337.3737373737374,1.57130218
26,1386.8686868686868,1.56090829
27,1436.3636363636363,1.5520293
28,1485.858585858586,1.54162878
29,1535.3535353535353,1.53174939
30,1584.8484848484848,1.51715226
31,1634.3434343434344,1.51024203
32,1683.8383838383838,1.49759842
33,1733.3333333333333,1.48910309
34,1782.828282828283,1.47401621
35,1832.3232323232323,1.46341717
36,1881.8181818181818,1.45518811
37,1931.3131313131314,1.44306942
38,1980.8080808080808,1.42534609
39,2030.3030303030303,1.41185558
40,2079.7979797979797,1.39930762
41,2129.2929292929293,1.39077935
42,2178.787878787879,1.36784028
43,2228.282828282828,1.35870932
44,2277.777777777778,1.33903452
45,2327.2727272727275,1.33192153
46,2376.7676767676767,1.31629162
47,2426.2626262626263,1.30255795
48,2475.757575757576,1.29248818
49,2525.252525252525,1.27443469
50,2574.747474747475,1.26167816
51,2624.242424242424,1.24533739
52,2673.7373737373737,1.23806869
53,2723.2323232323233,1.22161264
54,2772.7272727272725,1.20803331
55,2822.222222222222,1.19449523
56,2871.717171717172,1.18125632
57,2921.212121212121,1.16229229
58,2970.7070707070707,1.16128863
59,3020.2020202020203,1.1452256
60,3069.6969696969695,1.13349529
61,3119.191919191919,1.12237604
62,3168.686868686869,1.10630726
63,3218.181818181818,1.10080824
64,3267.6767676767677,1.08978971
65,3317.1717171717173,1.08438902
66,3366.6666666666665,1.06723842
67,3416.161616161616,1.05920725
68,3465.656565656566,1.0489595
69,3515.151515151515,1.04094329
70,3564.6464646464647,1.03323277
71,3614.1414141414143,1.02445453
72,3663.6363636363635,1.01794513
73,3713.131313131313,1.0113477
74,3762.626262626263,1.00654496
75,3812.121212121212,1.00114111
76,3861.6161616161617,0.996966548
77,3911.1111111111113,0.989271975
78,3960.6060606060605,0.987120589
79,4010.10101010101,0.981211482
80,4059.59595959596,0.980514423
81,4109.090909090909,0.977097331
82,4158.585858585859,0.976720266
83,4208.080808080808,0.971329265
84,4257.575757575758,0.972558626
85,4307.070707070707,0.97246641
86,4356.565656565656,0.971933281
87,4406.060606060606,0.978453621
88,4455.555555555556,0.978063182
89,4505.050505050505,0.979065441
90,4554.545454545455,0.986271376
91,4604.040404040404,0.988870105
92,4653.535353535353,0.991946046
93,4703.030303030303,0.996582652
94,4752.525252525253,1.00234266
95,4802.020202020202,1.00622068
96,4851.515151515152,1.01298044
97,4901.010101010101,1.02097966
98,4950.50505050505,1.02835394
99,5000.0,1.0318995
