,0,1
0,100.0,1.62471992
1,149.49494949494948,1.63263096
2,198.989898989899,1.63527222
3,248.4848484848485,1.63279496
4,297.979797979798,1.63122089
5,347.47474747474746,1.63632658
6,396.969696969697,1.63615803
7,446.4646464646465,1.64090986
8,495.95959595959596,1.63683404
9,545.4545454545455,1.63592727
10,594.9494949494949,1.63422414
11,644.4444444444445,1.64382786
12,693.939393939394,1.62945511
13,743.4343434343434,1.6395663
14,792.929292929293,1.62091293
15,842.4242424242424,1.62934612
16,891.9191919191919,1.62108337
17,941.4141414141415,1.61874599
18,990.9090909090909,1.61522974
19,1040.4040404040404,1.59645915
20,1089.8989898989898,1.58943234
21,1139.3939393939395,1.59278978
22,1188.888888888889,1.58624155
23,1238.3838383838383,1.57495966
24,1287.878787878788,1.57104997
25,1337.3737373737374,1.55684338
26,1386.8686868686868,1.54889902
27,1436.3636363636363,1.54249297
28,1485.858585858586,1.53047639
29,1535.3535353535353,1.51990561
30,1584.8484848484848,1.51311996
31,1634.3434343434344,1.49937919
32,1683.8383838383838,1.48652619
33,1733.3333333333333,1.47821447
34,1782.828282828283,1.46446021
35,1832.3232323232323,1.45407847
36,1881.8181818181818,1.44193749
37,1931.3131313131314,1.42817705
38,1980.8080808080808,1.41890867
39,2030.3030303030303,1.40538768
40,2079.7979797979797,1.39262123
41,2129.2929292929293,1.37905263
42,2178.787878787879,1.36755687
43,2228.282828282828,1.35636438
44,2277.777777777778,1.3401188
45,2327.2727272727275,1.32975833
46,2376.7676767676767,1.31499639
47,2426.2626262626263,1.29756906
48,2475.757575757576,1.28670615
49,2525.252525252525,1.27452981
50,2574.747474747475,1.26404376
51,2624.242424242424,1.25088565
52,2673.7373737373737,1.23509502
53,2723.2323232323233,1.22373303
54,2772.7272727272725,1.21296153
55,2822.222222222222,1.19930189
56,2871.717171717172,1.18940599
57,2921.212121212121,1.17510119
58,2970.7070707070707,1.16708544
59,3020.2020202020203,1.15270986
60,3069.6969696969695,1.13850032
61,3119.191919191919,1.13296687
62,3168.686868686869,1.12095542
63,3218.181818181818,1.10931375
64,3267.6767676767677,1.10115292
65,3317.1717171717173,1.0923806
66,3366.6666666666665,1.08480601
67,3416.161616161616,1.07629407
68,3465.656565656566,1.06434634
69,3515.151515151515,1.06229051
70,3564.6464646464647,1.05477624
71,3614.1414141414143,1.04666127
72,3663.6363636363635,1.04171116
73,3713.131313131313,1.0373307
74,3762.626262626263,1.03320456
75,3812.121212121212,1.02763836
76,3861.6161616161617,1.02414733
77,3911.1111111111113,1.02045747
78,3960.6060606060605,1.01833862
79,4010.10101010101,1.01398885
80,4059.59595959596,1.01722111
81,4109.090909090909,1.01277243
82,4158.585858585859,1.01401738
83,4208.080808080808,1.0131167
84,4257.575757575758,1.01311308
85,4307.070707070707,1.01576658
86,4356.565656565656,1.01589588
87,4406.060606060606,1.01992226
88,4455.555555555556,1.02091115
89,4505.050505050505,1.02535786
90,4554.545454545455,1.02693434
91,4604.040404040404,1.03737133
92,4653.535353535353,1.0327858
93,4703.030303030303,1.04023156
94,4752.525252525253,1.04797042
95,4802.020202020202,1.05320212
96,4851.515151515152,1.06027235
97,4901.010101010101,1.06757844
98,4950.50505050505,1.07467757
99,5000.0,1.07628806
