,0,1
0,100.0,1.57037223
1,149.49494949494948,1.57603719
2,198.989898989899,1.58638143
3,248.4848484848485,1.5936138
4,297.979797979798,1.59597605
5,347.47474747474746,1.60466776
6,396.969696969697,1.59869785
7,446.4646464646465,1.61675019
8,495.95959595959596,1.62262931
9,545.4545454545455,1.627084
10,594.9494949494949,1.62913133
11,644.4444444444445,1.61997856
12,693.939393939394,1.62663001
13,743.4343434343434,1.63117179
14,792.929292929293,1.62959656
15,842.4242424242424,1.62840982
16,891.9191919191919,1.62929522
17,941.4141414141415,1.6274841
18,990.9090909090909,1.62556478
19,1040.4040404040404,1.62749387
20,1089.8989898989898,1.6176044
21,1139.3939393939395,1.61772252
22,1188.888888888889,1.60836052
23,1238.3838383838383,1.60646437
24,1287.878787878788,1.59691254
25,1337.3737373737374,1.59310328
26,1386.8686868686868,1.58754704
27,1436.3636363636363,1.57698915
28,1485.858585858586,1.56760208
29,1535.3535353535353,1.56044093
30,1584.8484848484848,1.55290511
31,1634.3434343434344,1.53921298
32,1683.8383838383838,1.52425495
33,1733.3333333333333,1.51725827
34,1782.828282828283,1.50628908
35,1832.3232323232323,1.48953418
36,1881.8181818181818,1.47894205
37,1931.3131313131314,1.47195083
38,1980.8080808080808,1.4558265
39,2030.3030303030303,1.43972516
40,2079.7979797979797,1.42710847
41,2129.2929292929293,1.41181907
42,2178.787878787879,1.40081944
43,2228.282828282828,1.38339708
44,2277.777777777778,1.36950147
45,2327.2727272727275,1.3534151
46,2376.7676767676767,1.3391248
47,2426.2626262626263,1.32003745
48,2475.757575757576,1.30823691
49,2525.252525252525,1.290246
50,2574.747474747475,1.27568686
51,2624.242424242424,1.26073516
52,2673.7373737373737,1.23890532
53,2723.2323232323233,1.22597132
54,2772.7272727272725,1.21004622
55,2822.222222222222,1.19314616
56,2871.717171717172,1.17562051
57,2921.212121212121,1.16034548
58,2970.7070707070707,1.14634114
59,3020.2020202020203,1.13009823
60,3069.6969696969695,1.11382535
61,3119.191919191919,1.10200778
62,3168.686868686869,1.08180767
63,3218.181818181818,1.06940237
64,3267.6767676767677,1.05781393
65,3317.1717171717173,1.04214105
66,3366.6666666666665,1.02740258
67,3416.161616161616,1.01691093
68,3465.656565656566,1.00312283
69,3515.151515151515,0.990856777
70,3564.6464646464647,0.978738369
71,3614.1414141414143,0.967838721
72,3663.6363636363635,0.956151519
73,3713.131313131313,0.945590927
74,3762.626262626263,0.935661516
75,3812.121212121212,0.926013194
76,3861.6161616161617,0.916294508
77,3911.1111111111113,0.907667411
78,3960.6060606060605,0.899446033
79,4010.10101010101,0.894208056
80,4059.59595959596,0.887159688
81,4109.090909090909,0.882324324
82,4158.585858585859,0.875885366
83,4208.080808080808,0.871364651
84,4257.575757575758,0.867734702
85,4307.070707070707,0.86183297
86,4356.565656565656,0.859599347
87,4406.060606060606,0.858994475
88,4455.555555555556,0.858184786
89,4505.050505050505,0.857695141
90,4554.545454545455,0.858057758
91,4604.040404040404,0.859081917
92,4653.535353535353,0.861869632
93,4703.030303030303,0.861848503
94,4752.525252525253,0.863621918
95,4802.020202020202,0.865320691
96,4851.515151515152,0.87365013
97,4901.010101010101,0.878314426
98,4950.50505050505,0.883648324
99,5000.0,0.887469375
