,0,1
0,100.0,1.52591597
1,149.49494949494948,1.54331204
2,198.989898989899,1.55439972
3,248.4848484848485,1.56519066
4,297.979797979798,1.5718727
5,347.47474747474746,1.58134814
6,396.969696969697,1.58014334
7,446.4646464646465,1.59987835
8,495.95959595959596,1.59441007
9,545.4545454545455,1.60352432
10,594.9494949494949,1.60287821
11,644.4444444444445,1.60734761
12,693.939393939394,1.60516874
13,743.4343434343434,1.61513692
14,792.929292929293,1.61860164
15,842.4242424242424,1.61408103
16,891.9191919191919,1.62284615
17,941.4141414141415,1.62254464
18,990.9090909090909,1.61607884
19,1040.4040404040404,1.61272596
20,1089.8989898989898,1.61527684
21,1139.3939393939395,1.61061409
22,1188.888888888889,1.60203741
23,1238.3838383838383,1.61236228
24,1287.878787878788,1.60387939
25,1337.3737373737374,1.58983201
26,1386.8686868686868,1.59354036
27,1436.3636363636363,1.58176366
28,1485.858585858586,1.57383672
29,1535.3535353535353,1.56767817
30,1584.8484848484848,1.55525662
31,1634.3434343434344,1.54851701
32,1683.8383838383838,1.5259987
33,1733.3333333333333,1.52655744
34,1782.828282828283,1.51488139
35,1832.3232323232323,1.50188306
36,1881.8181818181818,1.49051951
37,1931.3131313131314,1.48006596
38,1980.8080808080808,1.46587705
39,2030.3030303030303,1.45133672
40,2079.7979797979797,1.43888349
41,2129.2929292929293,1.42731692
42,2178.787878787879,1.41119271
43,2228.282828282828,1.39828961
44,2277.777777777778,1.37621174
45,2327.2727272727275,1.36446362
46,2376.7676767676767,1.3490403
47,2426.2626262626263,1.33163413
48,2475.757575757576,1.31599364
49,2525.252525252525,1.29643691
50,2574.747474747475,1.28178865
51,2624.242424242424,1.26430585
52,2673.7373737373737,1.24900559
53,2723.2323232323233,1.23155818
54,2772.7272727272725,1.21331736
55,2822.222222222222,1.19648731
56,2871.717171717172,1.1793957
57,2921.212121212121,1.16251899
58,2970.7070707070707,1.14606647
59,3020.2020202020203,1.12817566
60,3069.6969696969695,1.11206772
61,3119.191919191919,1.09516879
62,3168.686868686869,1.0766546
63,3218.181818181818,1.06325027
64,3267.6767676767677,1.04584439
65,3317.1717171717173,1.02990617
66,3366.6666666666665,1.01344242
67,3416.161616161616,0.998618101
68,3465.656565656566,0.985084725
69,3515.151515151515,0.970700075
70,3564.6464646464647,0.95761328
71,3614.1414141414143,0.942819642
72,3663.6363636363635,0.928873161
73,3713.131313131313,0.918033648
74,3762.626262626263,0.906126414
75,3812.121212121212,0.89566901
76,3861.6161616161617,0.885449465
77,3911.1111111111113,0.877949858
78,3960.6060606060605,0.864421006
79,4010.10101010101,0.855181075
80,4059.59595959596,0.848913476
81,4109.090909090909,0.840429023
82,4158.585858585859,0.834518094
83,4208.080808080808,0.828273452
84,4257.575757575758,0.823500993
85,4307.070707070707,0.819223406
86,4356.565656565656,0.814312489
87,4406.060606060606,0.809973633
88,4455.555555555556,0.807696165
89,4505.050505050505,0.804948261
90,4554.545454545455,0.801665161
91,4604.040404040404,0.803473961
92,4653.535353535353,0.804064784
93,4703.030303030303,0.804624438
94,4752.525252525253,0.804007238
95,4802.020202020202,0.80725814
96,4851.515151515152,0.807938362
97,4901.010101010101,0.816021992
98,4950.50505050505,0.818849654
99,5000.0,0.825566325
