,0,1
0,100.0,1.28392517
1,149.49494949494948,1.26918279
2,198.989898989899,1.25553994
3,248.4848484848485,1.23669105
4,297.979797979798,1.21907185
5,347.47474747474746,1.2020438
6,396.969696969697,1.18418555
7,446.4646464646465,1.16675367
8,495.95959595959596,1.1478958
9,545.4545454545455,1.12769808
10,594.9494949494949,1.11394066
11,644.4444444444445,1.09454377
12,693.939393939394,1.0757649
13,743.4343434343434,1.05981524
14,792.929292929293,1.04526789
15,842.4242424242424,1.02741657
16,891.9191919191919,1.01229281
17,941.4141414141415,0.994769785
18,990.9090909090909,0.981670393
19,1040.4040404040404,0.965468909
20,1089.8989898989898,0.951253701
21,1139.3939393939395,0.938497206
22,1188.888888888889,0.925789371
23,1238.3838383838383,0.913829063
24,1287.878787878788,0.899090651
25,1337.3737373737374,0.888864805
26,1386.8686868686868,0.876694978
27,1436.3636363636363,0.86666731
28,1485.858585858586,0.856671307
29,1535.3535353535353,0.848080579
30,1584.8484848484848,0.838128308
31,1634.3434343434344,0.829407577
32,1683.8383838383838,0.822312155
33,1733.3333333333333,0.815400253
34,1782.828282828283,0.810184203
35,1832.3232323232323,0.805755631
36,1881.8181818181818,0.8001545
37,1931.3131313131314,0.796678426
38,1980.8080808080808,0.794242207
39,2030.3030303030303,0.791054371
40,2079.7979797979797,0.789662881
41,2129.2929292929293,0.789730799
42,2178.787878787879,0.789080831
43,2228.282828282828,0.78927124
44,2277.777777777778,0.790974276
45,2327.2727272727275,0.793025484
46,2376.7676767676767,0.794723378
47,2426.2626262626263,0.800034765
48,2475.757575757576,0.803370868
49,2525.252525252525,0.808814545
50,2574.747474747475,0.815224668
51,2624.242424242424,0.821884891
52,2673.7373737373737,0.829039043
53,2723.2323232323233,0.836358029
54,2772.7272727272725,0.845048789
55,2822.222222222222,0.854621304
56,2871.717171717172,0.864586728
57,2921.212121212121,0.874572258
58,2970.7070707070707,0.885599911
59,3020.2020202020203,0.897217107
60,3069.6969696969695,0.909158689
61,3119.191919191919,0.920755222
62,3168.686868686869,0.934212203
63,3218.181818181818,0.947724561
64,3267.6767676767677,0.961892572
65,3317.1717171717173,0.975234882
66,3366.6666666666665,0.99124617
67,3416.161616161616,1.00656866
68,3465.656565656566,1.02123397
69,3515.151515151515,1.03608768
70,3564.6464646464647,1.05246773
71,3614.1414141414143,1.06798303
72,3663.6363636363635,1.08375928
73,3713.131313131313,1.09953991
74,3762.626262626263,1.11448772
75,3812.121212121212,1.1316215
76,3861.6161616161617,1.14930597
77,3911.1111111111113,1.16528481
78,3960.6060606060605,1.18207868
79,4010.10101010101,1.19805237
80,4059.59595959596,1.21342208
81,4109.090909090909,1.23091141
82,4158.585858585859,1.24729637
83,4208.080808080808,1.26309343
84,4257.575757575758,1.27951164
85,4307.070707070707,1.29497281
86,4356.565656565656,1.31017064
87,4406.060606060606,1.32511091
88,4455.555555555556,1.33702818
89,4505.050505050505,1.35397353
90,4554.545454545455,1.36818449
91,4604.040404040404,1.38101589
92,4653.535353535353,1.39288793
93,4703.030303030303,1.40649859
94,4752.525252525253,1.42026954
95,4802.020202020202,1.43060937
96,4851.515151515152,1.44453599
97,4901.010101010101,1.45570609
98,4950.50505050505,1.4660171
99,5000.0,1.4751383
