,0,1
0,100.0,0.752613588
1,149.49494949494948,0.751935501
2,198.989898989899,0.750972526
3,248.4848484848485,0.750982473
4,297.979797979798,0.751208212
5,347.47474747474746,0.749784176
6,396.969696969697,0.750539947
7,446.4646464646465,0.749126585
8,495.95959595959596,0.749405462
9,545.4545454545455,0.749038108
10,594.9494949494949,0.748095796
11,644.4444444444445,0.747453454
12,693.939393939394,0.747043979
13,743.4343434343434,0.747010084
14,792.929292929293,0.746005905
15,842.4242424242424,0.746274407
16,891.9191919191919,0.74608517
17,941.4141414141415,0.746130335
18,990.9090909090909,0.745153088
19,1040.4040404040404,0.744986267
20,1089.8989898989898,0.745126244
21,1139.3939393939395,0.744936956
22,1188.888888888889,0.744268647
23,1238.3838383838383,0.7425963
24,1287.878787878788,0.744155894
25,1337.3737373737374,0.74458759
26,1386.8686868686868,0.743840748
27,1436.3636363636363,0.743917194
28,1485.858585858586,0.743698216
29,1535.3535353535353,0.744274771
30,1584.8484848484848,0.74296228
31,1634.3434343434344,0.743684032
32,1683.8383838383838,0.743036834
33,1733.3333333333333,0.742954806
34,1782.828282828283,0.742960034
35,1832.3232323232323,0.744065955
36,1881.8181818181818,0.74410896
37,1931.3131313131314,0.743100273
38,1980.8080808080808,0.74327884
39,2030.3030303030303,0.743077741
40,2079.7979797979797,0.743095724
41,2129.2929292929293,0.742839038
42,2178.787878787879,0.742011925
43,2228.282828282828,0.742417817
44,2277.777777777778,0.742642572
45,2327.2727272727275,0.742782787
46,2376.7676767676767,0.742246232
47,2426.2626262626263,0.742653235
48,2475.757575757576,0.742779971
49,2525.252525252525,0.740227458
50,2574.747474747475,0.743691166
51,2624.242424242424,0.743708347
52,2673.7373737373737,0.742645336
53,2723.2323232323233,0.743354428
54,2772.7272727272725,0.743941751
55,2822.222222222222,0.743189245
56,2871.717171717172,0.741630026
57,2921.212121212121,0.742881186
58,2970.7070707070707,0.742943454
59,3020.2020202020203,0.742632949
60,3069.6969696969695,0.742879019
61,3119.191919191919,0.74308628
62,3168.686868686869,0.743080762
63,3218.181818181818,0.743232215
64,3267.6767676767677,0.743637982
65,3317.1717171717173,0.742224692
66,3366.6666666666665,0.7414524
67,3416.161616161616,0.742326821
68,3465.656565656566,0.742522495
69,3515.151515151515,0.742732212
70,3564.6464646464647,0.742467064
71,3614.1414141414143,0.743025572
72,3663.6363636363635,0.743021924
73,3713.131313131313,0.743258256
74,3762.626262626263,0.743666214
75,3812.121212121212,0.743091561
76,3861.6161616161617,0.742931958
77,3911.1111111111113,0.742786763
78,3960.6060606060605,0.742868253
79,4010.10101010101,0.740581179
80,4059.59595959596,0.742988392
81,4109.090909090909,0.743599958
82,4158.585858585859,0.743351816
83,4208.080808080808,0.742213324
84,4257.575757575758,0.743156166
85,4307.070707070707,0.743736333
86,4356.565656565656,0.743913646
87,4406.060606060606,0.743281355
88,4455.555555555556,0.743145811
89,4505.050505050505,0.743424565
90,4554.545454545455,0.743799572
91,4604.040404040404,0.743309324
92,4653.535353535353,0.741086276
93,4703.030303030303,0.73517256
94,4752.525252525253,0.743191721
95,4802.020202020202,0.743786289
96,4851.515151515152,0.742604662
97,4901.010101010101,0.742230364
98,4950.50505050505,0.74315096
99,5000.0,0.743684281
