,0,1
0,100.0,0.684121497
1,149.49494949494948,0.682715597
2,198.989898989899,0.681192112
3,248.4848484848485,0.680488455
4,297.979797979798,0.679376169
5,347.47474747474746,0.678705515
6,396.969696969697,0.677458482
7,446.4646464646465,0.675985298
8,495.95959595959596,0.675014607
9,545.4545454545455,0.674536327
10,594.9494949494949,0.673920625
11,644.4444444444445,0.672954159
12,693.939393939394,0.672669758
13,743.4343434343434,0.671668901
14,792.929292929293,0.671341964
15,842.4242424242424,0.67098779
16,891.9191919191919,0.670455787
17,941.4141414141415,0.669976159
18,990.9090909090909,0.669492394
19,1040.4040404040404,0.669063778
20,1089.8989898989898,0.668161532
21,1139.3939393939395,0.667883328
22,1188.888888888889,0.667809341
23,1238.3838383838383,0.667417151
24,1287.878787878788,0.666733983
25,1337.3737373737374,0.665923075
26,1386.8686868686868,0.666230446
27,1436.3636363636363,0.665885348
28,1485.858585858586,0.666331645
29,1535.3535353535353,0.665786252
30,1584.8484848484848,0.665714133
31,1634.3434343434344,0.666013095
32,1683.8383838383838,0.665426386
33,1733.3333333333333,0.66574773
34,1782.828282828283,0.666222231
35,1832.3232323232323,0.666014201
36,1881.8181818181818,0.666152108
37,1931.3131313131314,0.665502894
38,1980.8080808080808,0.666074792
39,2030.3030303030303,0.666216613
40,2079.7979797979797,0.666249589
41,2129.2929292929293,0.66624146
42,2178.787878787879,0.665932337
43,2228.282828282828,0.66576747
44,2277.777777777778,0.665507045
45,2327.2727272727275,0.665082576
46,2376.7676767676767,0.665511696
47,2426.2626262626263,0.664849985
48,2475.757575757576,0.664961048
49,2525.252525252525,0.664789184
50,2574.747474747475,0.664758981
51,2624.242424242424,0.66497265
52,2673.7373737373737,0.664678792
53,2723.2323232323233,0.664246784
54,2772.7272727272725,0.663792679
55,2822.222222222222,0.664125752
56,2871.717171717172,0.663662589
57,2921.212121212121,0.664214466
58,2970.7070707070707,0.66428903
59,3020.2020202020203,0.664054442
60,3069.6969696969695,0.66381564
61,3119.191919191919,0.663860729
62,3168.686868686869,0.663671341
63,3218.181818181818,0.663324843
64,3267.6767676767677,0.663431749
65,3317.1717171717173,0.662624329
66,3366.6666666666665,0.663178113
67,3416.161616161616,0.663148148
68,3465.656565656566,0.663586997
69,3515.151515151515,0.664072285
70,3564.6464646464647,0.663609423
71,3614.1414141414143,0.663909238
72,3663.6363636363635,0.663727902
73,3713.131313131313,0.663989446
74,3762.626262626263,0.664018047
75,3812.121212121212,0.664025126
76,3861.6161616161617,0.66363658
77,3911.1111111111113,0.663923188
78,3960.6060606060605,0.664553034
79,4010.10101010101,0.664490696
80,4059.59595959596,0.665080962
81,4109.090909090909,0.664491784
82,4158.585858585859,0.664360608
83,4208.080808080808,0.664311055
84,4257.575757575758,0.664364266
85,4307.070707070707,0.665091053
86,4356.565656565656,0.664056684
87,4406.060606060606,0.664860949
88,4455.555555555556,0.664191348
89,4505.050505050505,0.663945867
90,4554.545454545455,0.664128501
91,4604.040404040404,0.663512175
92,4653.535353535353,0.663261495
93,4703.030303030303,0.6629991
94,4752.525252525253,0.662837991
95,4802.020202020202,0.662557222
96,4851.515151515152,0.66217428
97,4901.010101010101,0.662358306
98,4950.50505050505,0.662436533
99,5000.0,0.662880759
