,0,1
0,100.0,0.869776796
1,149.49494949494948,0.868975601
2,198.989898989899,0.868348102
3,248.4848484848485,0.86874872
4,297.979797979798,0.868845762
5,347.47474747474746,0.868806302
6,396.969696969697,0.868057273
7,446.4646464646465,0.868444127
8,495.95959595959596,0.867547192
9,545.4545454545455,0.868579819
10,594.9494949494949,0.868344778
11,644.4444444444445,0.868407782
12,693.939393939394,0.867874764
13,743.4343434343434,0.86788227
14,792.929292929293,0.867529182
15,842.4242424242424,0.866887082
16,891.9191919191919,0.867579432
17,941.4141414141415,0.866975332
18,990.9090909090909,0.867515668
19,1040.4040404040404,0.866702667
20,1089.8989898989898,0.867145849
21,1139.3939393939395,0.866577574
22,1188.888888888889,0.866680491
23,1238.3838383838383,0.866029522
24,1287.878787878788,0.866413367
25,1337.3737373737374,0.865133805
26,1386.8686868686868,0.865939249
27,1436.3636363636363,0.866253726
28,1485.858585858586,0.866535753
29,1535.3535353535353,0.866240482
30,1584.8484848484848,0.865967666
31,1634.3434343434344,0.866408302
32,1683.8383838383838,0.865889154
33,1733.3333333333333,0.866068207
34,1782.828282828283,0.86611805
35,1832.3232323232323,0.867096835
36,1881.8181818181818,0.866678291
37,1931.3131313131314,0.866866427
38,1980.8080808080808,0.866786572
39,2030.3030303030303,0.867164086
40,2079.7979797979797,0.867556485
41,2129.2929292929293,0.867452519
42,2178.787878787879,0.867744008
43,2228.282828282828,0.867318418
44,2277.777777777778,0.867287518
45,2327.2727272727275,0.867298938
46,2376.7676767676767,0.867015914
47,2426.2626262626263,0.866525343
48,2475.757575757576,0.865790399
49,2525.252525252525,0.865687554
50,2574.747474747475,0.86526266
51,2624.242424242424,0.864838465
52,2673.7373737373737,0.865472288
53,2723.2323232323233,0.865894432
54,2772.7272727272725,0.865684802
55,2822.222222222222,0.866695836
56,2871.717171717172,0.866376766
57,2921.212121212121,0.865851937
58,2970.7070707070707,0.866475262
59,3020.2020202020203,0.866755963
60,3069.6969696969695,0.8666482
61,3119.191919191919,0.866457969
62,3168.686868686869,0.866084014
63,3218.181818181818,0.866330567
64,3267.6767676767677,0.866425844
65,3317.1717171717173,0.866720558
66,3366.6666666666665,0.866065135
67,3416.161616161616,0.86696518
68,3465.656565656566,0.866260467
69,3515.151515151515,0.866737194
70,3564.6464646464647,0.867085184
71,3614.1414141414143,0.866910114
72,3663.6363636363635,0.866701828
73,3713.131313131313,0.866771789
74,3762.626262626263,0.866269574
75,3812.121212121212,0.866120805
76,3861.6161616161617,0.86611414
77,3911.1111111111113,0.867094642
78,3960.6060606060605,0.866758203
79,4010.10101010101,0.866702014
80,4059.59595959596,0.866413999
81,4109.090909090909,0.866739434
82,4158.585858585859,0.866719726
83,4208.080808080808,0.866951268
84,4257.575757575758,0.866833136
85,4307.070707070707,0.866594854
86,4356.565656565656,0.866867582
87,4406.060606060606,0.866663278
88,4455.555555555556,0.86663585
89,4505.050505050505,0.867021817
90,4554.545454545455,0.867535089
91,4604.040404040404,0.867101073
92,4653.535353535353,0.86748784
93,4703.030303030303,0.867413173
94,4752.525252525253,0.867108963
95,4802.020202020202,0.867404929
96,4851.515151515152,0.868187594
97,4901.010101010101,0.867580834
98,4950.50505050505,0.867546992
99,5000.0,0.866961587
