,0,1
0,100.0,0.337656941
1,149.49494949494948,0.338220774
2,198.989898989899,0.336117089
3,248.4848484848485,0.337454084
4,297.979797979798,0.336076226
5,347.47474747474746,0.336223321
6,396.969696969697,0.33582802
7,446.4646464646465,0.336833145
8,495.95959595959596,0.336261781
9,545.4545454545455,0.33599215
10,594.9494949494949,0.33638095
11,644.4444444444445,0.336366353
12,693.939393939394,0.336501591
13,743.4343434343434,0.336632322
14,792.929292929293,0.337089994
15,842.4242424242424,0.336743164
16,891.9191919191919,0.335906661
17,941.4141414141415,0.336777764
18,990.9090909090909,0.336606257
19,1040.4040404040404,0.336343172
20,1089.8989898989898,0.336578244
21,1139.3939393939395,0.336562421
22,1188.888888888889,0.336147822
23,1238.3838383838383,0.335938059
24,1287.878787878788,0.335799991
25,1337.3737373737374,0.336175593
26,1386.8686868686868,0.335298149
27,1436.3636363636363,0.336294576
28,1485.858585858586,0.336186621
29,1535.3535353535353,0.335814652
30,1584.8484848484848,0.335609508
31,1634.3434343434344,0.335726275
32,1683.8383838383838,0.335672311
33,1733.3333333333333,0.335771085
34,1782.828282828283,0.337193036
35,1832.3232323232323,0.335499556
36,1881.8181818181818,0.335818948
37,1931.3131313131314,0.335881088
38,1980.8080808080808,0.336244521
39,2030.3030303030303,0.335468403
40,2079.7979797979797,0.335895131
41,2129.2929292929293,0.337277282
42,2178.787878787879,0.336158878
43,2228.282828282828,0.335622859
44,2277.777777777778,0.336027006
45,2327.2727272727275,0.336386896
46,2376.7676767676767,0.335684403
47,2426.2626262626263,0.336275482
48,2475.757575757576,0.335896254
49,2525.252525252525,0.336120967
50,2574.747474747475,0.335748977
51,2624.242424242424,0.335751483
52,2673.7373737373737,0.334806699
53,2723.2323232323233,0.335684521
54,2772.7272727272725,0.335292203
55,2822.222222222222,0.335427518
56,2871.717171717172,0.335305836
57,2921.212121212121,0.335412963
58,2970.7070707070707,0.335491858
59,3020.2020202020203,0.335555643
60,3069.6969696969695,0.335032987
61,3119.191919191919,0.335942905
62,3168.686868686869,0.334959627
63,3218.181818181818,0.335440659
64,3267.6767676767677,0.335220903
65,3317.1717171717173,0.334958551
66,3366.6666666666665,0.335916456
67,3416.161616161616,0.336854255
68,3465.656565656566,0.335517036
69,3515.151515151515,0.335833552
70,3564.6464646464647,0.335469792
71,3614.1414141414143,0.335908974
72,3663.6363636363635,0.335734883
73,3713.131313131313,0.335406145
74,3762.626262626263,0.335901905
75,3812.121212121212,0.335899329
76,3861.6161616161617,0.335588808
77,3911.1111111111113,0.335984545
78,3960.6060606060605,0.336279368
79,4010.10101010101,0.336212086
80,4059.59595959596,0.336353339
81,4109.090909090909,0.336257254
82,4158.585858585859,0.335619393
83,4208.080808080808,0.335520353
84,4257.575757575758,0.337217891
85,4307.070707070707,0.336651346
86,4356.565656565656,0.336057135
87,4406.060606060606,0.335935939
88,4455.555555555556,0.336354961
89,4505.050505050505,0.336852437
90,4554.545454545455,0.336118989
91,4604.040404040404,0.336542882
92,4653.535353535353,0.336318749
93,4703.030303030303,0.335982685
94,4752.525252525253,0.335909263
95,4802.020202020202,0.336013555
96,4851.515151515152,0.335554375
97,4901.010101010101,0.335698872
98,4950.50505050505,0.335835714
99,5000.0,0.335973041
